<?xml version="1.0" encoding="UTF-8" standalone="no"?>
<!-- Created with Inkscape (http://www.inkscape.org/) -->

<svg
   version="1.1"
   id="svg132"
   width="201.6604"
   height="201.66455"
   viewBox="0 0 201.6604 201.66455"
   sodipodi:docname="logo_geoazimut_2018.ai"
   xmlns:inkscape="http://www.inkscape.org/namespaces/inkscape"
   xmlns:sodipodi="http://sodipodi.sourceforge.net/DTD/sodipodi-0.dtd"
   xmlns="http://www.w3.org/2000/svg"
   xmlns:svg="http://www.w3.org/2000/svg">
  <defs
     id="defs136">
    <clipPath
       clipPathUnits="userSpaceOnUse"
       id="clipPath148">
      <path
         d="M 0,841.89 H 595.28 V 0 H 0 Z"
         id="path146" />
    </clipPath>
  </defs>
  <sodipodi:namedview
     id="namedview134"
     pagecolor="#505050"
     bordercolor="#eeeeee"
     borderopacity="1"
     inkscape:showpageshadow="0"
     inkscape:pageopacity="0"
     inkscape:pagecheckerboard="0"
     inkscape:deskcolor="#505050"
     showgrid="false" />
  <g
     id="g140"
     inkscape:groupmode="layer"
     inkscape:label="Page 1"
     transform="matrix(1.3333333,0,0,-1.3333333,-296.36493,777.37931)">
    <g
       id="g142">
      <g
         id="g144"
         clip-path="url(#clipPath148)">
        <g
           id="g184"
           transform="translate(297.895,535.9742)">
          <path
             d="m 0,0 c -15.75,0 -28.567,-12.814 -28.567,-28.564 0,-15.75 12.817,-28.564 28.567,-28.564 15.75,0 28.564,12.814 28.564,28.564 C 28.564,-12.814 15.75,0 0,0 m 0,-74.058 c -25.086,0 -45.492,20.411 -45.492,45.494 0,25.086 20.406,45.494 45.492,45.494 25.085,0 45.494,-20.408 45.494,-45.494 0,-25.083 -20.409,-45.494 -45.494,-45.494"
             style="fill:#3e3e40;fill-opacity:1;fill-rule:nonzero;stroke:none"
             id="path186" />
        </g>
        <g
           id="g188"
           transform="translate(307.4788,449.0281)">
          <path
             d="M 0,0 -9.579,-9.581 -19.155,0 l -3.83,-3.831 13.406,-13.411 13.41,13.411 z"
             style="fill:#e64132;fill-opacity:1;fill-rule:nonzero;stroke:none"
             id="path190" />
        </g>
        <g
           id="g192"
           transform="translate(360.11,520.822)">
          <path
             d="m 0,0 -3.83,-3.831 9.578,-9.581 -9.578,-9.576 3.83,-3.83 13.409,13.406 z"
             style="fill:#ffd600;fill-opacity:1;fill-rule:nonzero;stroke:none"
             id="path194" />
        </g>
        <g
           id="g196"
           transform="translate(297.9002,583.0345)">
          <path
             d="m 0,0 -13.412,-13.412 3.831,-3.83 9.581,9.581 9.576,-9.581 3.83,3.83 z"
             style="fill:#8cbb15;fill-opacity:1;fill-rule:nonzero;stroke:none"
             id="path198" />
        </g>
        <g
           id="g200"
           transform="translate(239.5127,516.9863)">
          <path
             d="M 0,0 -3.83,3.83 -17.239,-9.576 -3.83,-22.988 0,-19.158 -9.579,-9.576 Z"
             style="fill:#3fbfeb;fill-opacity:1;fill-rule:nonzero;stroke:none"
             id="path202" />
        </g>
      </g>
    </g>
  </g>
</svg>
