<?xml version="1.0" encoding="UTF-8" standalone="no"?>
<svg
   height="13.330266"
   viewBox="0 0 11.483688 13.330266"
   width="11.483688"
   fill="#000000"
   version="1.1"
   id="svg1071"
   xmlns="http://www.w3.org/2000/svg"
   xmlns:svg="http://www.w3.org/2000/svg">
  <defs
     id="defs1075" />
  <path
     d="M 4.872392,9.8623916 1.42,6.3302656 0,7.7402656 5.59,13.330266 11.483688,0.02794 9.382658,0 Z"
     id="path1069"
     style="fill:#ffffff" />
</svg>
