{
  "configVersion": 1,
  "timestamp": 1739541640637,
  "appData": {
    "version": "1.1.5",
    "changelog": ""
  },
  "index": "/mobile.html",
  "assetGroups": [
    {
      "name": "app",
      "installMode": "prefetch",
      "updateMode": "prefetch",
      "cacheQueryOptions": {
        "ignoreVary": true
      },
      "urls": [
        "/favicon.ico",
        "/main-K73R45FG.js",
        "/manifest-mobile.webmanifest",
        "/mobile.html",
        "/polyfills-D3PS43XS.js",
        "/styles-VMGB3DQU.css"
      ],
      "patterns": []
    },
    {
      "name": "assets",
      "installMode": "lazy",
      "updateMode": "prefetch",
      "cacheQueryOptions": {
        "ignoreVary": true
      },
      "urls": [
        "/assets/mobile/i18n/de.json",
        "/assets/mobile/i18n/en.json",
        "/assets/mobile/i18n/fr.json",
        "/assets/mobile/i18n/it.json",
        "/assets/mobile/icons/icon-128x128.png",
        "/assets/mobile/icons/icon-144x144.png",
        "/assets/mobile/icons/icon-152x152.png",
        "/assets/mobile/icons/icon-192x192.png",
        "/assets/mobile/icons/icon-384x384.png",
        "/assets/mobile/icons/icon-48x48.png",
        "/assets/mobile/icons/icon-512x512.png",
        "/assets/mobile/icons/icon-72x72.png",
        "/assets/mobile/icons/icon-96x96.png",
        "/assets/mobile/logo_geoazimut.svg",
        "/assets/mobile/logo_hz_geoalarme.svg",
        "/assets/mobile/logo_vt_geoalarme.svg",
        "/assets/mobile/picto-check.svg"
      ],
      "patterns": []
    }
  ],
  "dataGroups": [],
  "hashTable": {
    "/assets/mobile/i18n/de.json": "acc88676716515ce69768263b32e83ff5473d139",
    "/assets/mobile/i18n/en.json": "1b298ce43bf7fb029dcb4a9d8a6eec5ebe61d123",
    "/assets/mobile/i18n/fr.json": "2644370fa2e477a0d5ee052a4f4e3bcce239a0f9",
    "/assets/mobile/i18n/it.json": "4305e4859ea38fc71ad6d89e4becbfe94b64e01c",
    "/assets/mobile/icons/icon-128x128.png": "cde1b46781ebdcf75c4c9f975a0bfd9132cedebb",
    "/assets/mobile/icons/icon-144x144.png": "2277fb422bc90a8295e118d4d1fdedd6fde6afae",
    "/assets/mobile/icons/icon-152x152.png": "c89f35318dacc47089e995a0e099f151ef99379d",
    "/assets/mobile/icons/icon-192x192.png": "00c7fbca0f008c85ca7d215cef4b724007d207ac",
    "/assets/mobile/icons/icon-384x384.png": "37153fe91c9498ca2dc1e6df0a0edcc04ec198d6",
    "/assets/mobile/icons/icon-48x48.png": "cb88a7349d7ab9c0bc56111be8137e1e8df8cedd",
    "/assets/mobile/icons/icon-512x512.png": "868a497663fdb71ec6544bf1db71ed320e424c4f",
    "/assets/mobile/icons/icon-72x72.png": "e2a5432bc250c828a85abd129988fde66a26aba0",
    "/assets/mobile/icons/icon-96x96.png": "1938bf4b5ab96c7f43ba538f48d132b169ef3b34",
    "/assets/mobile/logo_geoazimut.svg": "fb952369a01727ce5b9c1816fce5e9b3a4f0789d",
    "/assets/mobile/logo_hz_geoalarme.svg": "e6ad3a554df200356f0273be7571c9cff8e1e536",
    "/assets/mobile/logo_vt_geoalarme.svg": "c0f6fa5ebf0043413deaa2670e68796350a5f026",
    "/assets/mobile/picto-check.svg": "fd9812aacccd8897dadf3e572773c9023393a67c",
    "/favicon.ico": "20c7cef26621ac36cc0d101df2d92e6bf2abb106",
    "/main-K73R45FG.js": "f14cb5b0fa648a8526f95ca1341cade392ea94ab",
    "/manifest-mobile.webmanifest": "42a67148e01cf7b2b92c3bccedf5ce5bc850744a",
    "/mobile.html": "d801066aa8a105347989d3ecc1d82264db6f3b3b",
    "/polyfills-D3PS43XS.js": "8758dc9fb93959b8a6c6ee04793c65df80b82558",
    "/styles-VMGB3DQU.css": "3d979477c3d493528fd16b1ab56f74fd17d89054"
  },
  "navigationUrls": [
    {
      "positive": true,
      "regex": "^\\/.*$"
    },
    {
      "positive": false,
      "regex": "^\\/(?:.+\\/)?[^/]*\\.[^/]*$"
    },
    {
      "positive": false,
      "regex": "^\\/(?:.+\\/)?[^/]*__[^/]*$"
    },
    {
      "positive": false,
      "regex": "^\\/(?:.+\\/)?[^/]*__[^/]*\\/.*$"
    }
  ],
  "navigationRequestStrategy": "performance"
}