<?xml version="1.0" encoding="UTF-8" standalone="no"?>
<!-- Created with Inkscape (http://www.inkscape.org/) -->

<svg
   version="1.1"
   id="svg132"
   width="179.3288"
   height="74.447632"
   viewBox="0 0 179.3288 74.447631"
   sodipodi:docname="logo_hz_geoalarme.svg"
   inkscape:version="1.2.2 (b0a8486, 2022-12-01)"
   xmlns:inkscape="http://www.inkscape.org/namespaces/inkscape"
   xmlns:sodipodi="http://sodipodi.sourceforge.net/DTD/sodipodi-0.dtd"
   xmlns="http://www.w3.org/2000/svg"
   xmlns:svg="http://www.w3.org/2000/svg">
  <sodipodi:namedview
     id="namedview2021"
     pagecolor="#505050"
     bordercolor="#eeeeee"
     borderopacity="1"
     inkscape:showpageshadow="0"
     inkscape:pageopacity="0"
     inkscape:pagecheckerboard="0"
     inkscape:deskcolor="#505050"
     showgrid="false"
     inkscape:zoom="4.0133735"
     inkscape:cx="101.66011"
     inkscape:cy="40.863378"
     inkscape:window-width="1200"
     inkscape:window-height="920"
     inkscape:window-x="0"
     inkscape:window-y="972"
     inkscape:window-maximized="0"
     inkscape:current-layer="g144" />
  <defs
     id="defs136">
    <clipPath
       clipPathUnits="userSpaceOnUse"
       id="clipPath148">
      <path
         d="M 0,841.89 H 595.28 V 0 H 0 Z"
         id="path146" />
    </clipPath>
  </defs>
  <g
     id="g140"
     transform="matrix(1.3333333,0,0,-1.3333333,-359.97424,610.48172)">
    <g
       id="g142">
      <g
         id="g144"
         clip-path="url(#clipPath148)"
         style="display:inline">
        <g
           id="g184"
           transform="translate(297.8975,440.4882)">
          <path
             d="m 0,0 c -5.814,0 -10.546,-4.73 -10.546,-10.545 0,-5.814 4.732,-10.545 10.546,-10.545 5.814,0 10.545,4.731 10.545,10.545 C 10.545,-4.73 5.814,0 0,0 m 0,-27.34 c -9.261,0 -16.794,7.535 -16.794,16.795 0,9.261 7.533,16.795 16.794,16.795 9.261,0 16.795,-7.534 16.795,-16.795 0,-9.26 -7.534,-16.795 -16.795,-16.795"
             style="fill:#3e3e40;fill-opacity:1;fill-rule:nonzero;stroke:none"
             id="path186" />
        </g>
        <g
           id="g188"
           transform="translate(301.4355,408.3906)">
          <path
             d="M 0,0 -3.536,-3.537 -7.071,0 l -1.414,-1.414 4.949,-4.951 4.95,4.951 z"
             style="fill:#ef3635;fill-opacity:1;fill-rule:nonzero;stroke:none"
             id="path190" />
        </g>
        <g
           id="g192"
           transform="translate(320.8652,434.8945)">
          <path
             d="M 0,0 -1.414,-1.414 2.122,-4.951 -1.414,-8.486 0,-9.9 4.95,-4.951 Z"
             style="fill:#fcd405;fill-opacity:1;fill-rule:nonzero;stroke:none"
             id="path194" />
        </g>
        <g
           id="g196"
           transform="translate(297.8994,457.8613)">
          <path
             d="M 0,0 -4.951,-4.951 -3.537,-6.365 0,-2.828 3.535,-6.365 4.949,-4.951 Z"
             style="fill:#75c92b;fill-opacity:1;fill-rule:nonzero;stroke:none"
             id="path198" />
        </g>
        <g
           id="g200"
           transform="translate(276.3447,433.4785)">
          <path
             d="m 0,0 -1.414,1.414 -4.95,-4.949 4.95,-4.951 1.414,1.414 -3.536,3.537 z"
             style="fill:#57c9f4;fill-opacity:1;fill-rule:nonzero;stroke:none"
             id="path202" />
        </g>
      </g>
      <g
         id="g459"
         style="display:inline;fill:#3e3e40;fill-opacity:1"
         transform="matrix(0.33242765,0,0,0.33242765,265.40131,297.91155)">
        <g
           aria-label="GEO"
           transform="scale(1,-1)"
           id="text595"
           style="font-weight:bold;font-size:32.9397px;font-family:Metropolis;-inkscape-font-specification:Metropolis-Bold;fill:#3e3e40;fill-opacity:1">
          <path
             d="m 222.02985,-386.37302 q -1.60839,0.62727 -4.26222,1.25454 -2.65383,0.61119 -5.29158,0.61119 -6.11186,0 -9.56989,-3.31327 -3.45802,-3.32936 -3.45802,-9.18387 0,-5.5811 3.49019,-8.99087 3.4902,-3.42586 9.73072,-3.42586 2.36433,0 4.50348,0.43427 2.13915,0.41818 4.76082,1.6888 v 5.61326 h -0.69161 q -0.45035,-0.33776 -1.31887,-0.94895 -0.86853,-0.62727 -1.67272,-1.06153 -0.93287,-0.51468 -2.18741,-0.88461 -1.23845,-0.36993 -2.63775,-0.36993 -1.64055,0 -2.97551,0.48252 -1.33495,0.48251 -2.39649,1.47971 -1.01328,0.96503 -1.60838,2.46083 -0.57902,1.47971 -0.57902,3.42585 0,3.97271 2.10698,6.07969 2.10699,2.10699 6.22445,2.10699 0.35384,0 0.77202,-0.0161 0.43427,-0.0161 0.78811,-0.0482 v -4.69648 h -4.7769 v -4.51956 h 11.0496 z"
             id="path942"
             style="fill:#3e3e40;fill-opacity:1" />
          <path
             d="m 242.64392,-385.00589 h -17.32229 v -23.94884 h 17.32229 v 4.63215 h -11.17826 v 4.13355 h 10.37407 v 4.63214 h -10.37407 v 5.91885 h 11.17826 z"
             id="path944"
             style="fill:#3e3e40;fill-opacity:1" />
          <path
             d="m 269.72536,-396.97227 q 0,5.72585 -3.2811,9.10346 -3.2811,3.36152 -9.07129,3.36152 -5.77409,0 -9.0552,-3.36152 -3.2811,-3.37761 -3.2811,-9.10346 0,-5.77409 3.2811,-9.11953 3.28111,-3.36152 9.0552,-3.36152 5.75802,0 9.05521,3.36152 3.29718,3.34544 3.29718,9.11953 z m -8.18667,6.06361 q 0.90069,-1.0937 1.33496,-2.57341 0.43426,-1.4958 0.43426,-3.50628 0,-2.15523 -0.4986,-3.66711 -0.4986,-1.51189 -1.30279,-2.44475 -0.82027,-0.96503 -1.89789,-1.39929 -1.06153,-0.43427 -2.21957,-0.43427 -1.17412,0 -2.21957,0.41818 -1.02937,0.41818 -1.89789,1.38321 -0.8042,0.9007 -1.31888,2.493 -0.4986,1.57622 -0.4986,3.66711 0,2.13915 0.48252,3.65104 0.4986,1.49579 1.30279,2.44474 0.80419,0.94895 1.88181,1.39929 1.07761,0.45035 2.26782,0.45035 1.1902,0 2.26782,-0.45035 1.07762,-0.46643 1.88181,-1.43146 z"
             id="path946"
             style="fill:#3e3e40;fill-opacity:1" />
        </g>
        <g
           aria-label="ALARME"
           transform="scale(1,-1)"
           id="text599"
           style="font-size:32.9397px;font-family:Metropolis;-inkscape-font-specification:Metropolis-Regular;fill:#3e3e40;fill-opacity:1">
          <path
             d="m 292.22627,-385.00589 h -3.39369 l -2.34824,-6.67479 h -10.35799 l -2.34824,6.67479 h -3.23286 l 8.71745,-23.94884 h 4.24613 z m -6.72305,-9.40905 -4.19788,-11.75728 -4.21396,11.75728 z"
             id="path917"
             style="fill:#3e3e40;fill-opacity:1" />
          <path
             d="m 311.01219,-385.00589 h -15.15097 v -23.94884 h 3.1846 v 21.11808 h 11.96637 z"
             id="path919"
             style="fill:#3e3e40;fill-opacity:1" />
          <path
             d="m 333.07922,-385.00589 h -3.39369 l -2.34824,-6.67479 H 316.9793 l -2.34824,6.67479 h -3.23285 l 8.71744,-23.94884 h 4.24613 z m -6.72304,-9.40905 -4.19789,-11.75728 -4.21396,11.75728 z"
             id="path921"
             style="fill:#3e3e40;fill-opacity:1" />
          <path
             d="m 356.52945,-385.00589 h -4.13354 l -8.00975,-9.52163 h -4.48739 v 9.52163 h -3.1846 v -23.94884 h 6.70696 q 2.17131,0 3.61886,0.28951 1.44755,0.27343 2.60558,0.9972 1.30279,0.82028 2.02657,2.07482 0.73985,1.23845 0.73985,3.15243 0,2.5895 -1.30279,4.34264 -1.30279,1.73705 -3.58669,2.62166 z m -7.44681,-17.20971 q 0,-1.02936 -0.36993,-1.81747 -0.35384,-0.80419 -1.1902,-1.35104 -0.69161,-0.46643 -1.64056,-0.64336 -0.94894,-0.193 -2.23565,-0.193 h -3.74753 v 9.03911 h 3.21676 q 1.51188,0 2.63775,-0.25734 1.12587,-0.27342 1.91398,-0.99719 0.72377,-0.67553 1.06153,-1.54405 0.35385,-0.88461 0.35385,-2.23566 z"
             id="path923"
             style="fill:#3e3e40;fill-opacity:1" />
          <path
             d="m 380.94472,-385.00589 h -3.1846 v -20.63556 l -6.6587,14.04119 h -1.8979 l -6.61045,-14.04119 v 20.63556 h -2.97551 v -23.94884 h 4.34263 l 6.38529,13.33351 6.17619,-13.33351 h 4.42305 z"
             id="path925"
             style="fill:#3e3e40;fill-opacity:1" />
          <path
             d="m 403.1565,-385.00589 h -15.77824 v -23.94884 h 15.77824 v 2.83076 h -12.59364 v 6.56221 h 12.59364 v 2.83075 h -12.59364 v 8.89436 h 12.59364 z"
             id="path927"
             style="fill:#3e3e40;fill-opacity:1" />
        </g>
      </g>
    </g>
  </g>
</svg>
