{
  "$schema": "./node_modules/@angular/service-worker/config/schema.json",
  "index": "mobile.html",
  "appData": {
    "version": "1.1.5",
    "changelog": ""
  },
  "assetGroups": [
    {
      "name": "app",
      "installMode": "prefetch",
      "resources": {
        "files": [
          "/favicon.ico",
          "/mobile.html",
          "/manifest-mobile.webmanifest",
          "/*.css",
          "/*.js"
        ]
      }
    },
    {
      "name": "assets",
      "installMode": "lazy",
      "updateMode": "prefetch",
      "resources": {
        "files": [
          "/assets/**/*",
          "/*.(svg|cur|jpeg|png|apng|webp|avif|gif|otf|ttf|woff|woff2)"
        ]
      }
    }
  ],
  "dataGroups": []
}
